{
    "data": [
        {
            "hash_id": "4zbq2dpr",
            "title": "Illustrator\u8f6f\u4ef6 \u8d85\u6e05\u57fa\u7840\u6559\u7a0b\uff0c\u65b0\u624b\u5165\u95e8\u5230\u7cbe\u901a\u7cfb\u5217(\u4e00\u5929\u8f7b\u677e\u641e\u5b9aAI\u8f6f\u4ef6\u5de5\u5177)",
            "subtitle": "Illustrator\u8f6f\u4ef6 \u8d85\u6e05\u57fa\u7840\u6559\u7a0b\uff0c\u65b0\u624b\u5165\u95e8\u5230\u7cbe\u901a\u7cfb\u5217(\u4e00\u5929\u8f7b\u677e\u641e\u5b9aAI\u8f6f\u4ef6\u5de5\u5177)",
            "summary": "<p><\/p><p><strong>Illustrator\u8f6f\u4ef6 \u8d85\u6e05\u57fa\u7840\u6559\u7a0b<\/strong><\/p><p><\/p><p>\u6211\u4eec\u5e38\u8bf4\u7684\u5b66UI\u8bbe\u8ba1\u6216\u505aUI\u8bbe\u8ba1\uff0c\u4e00\u822c\u90fd\u6307GUI\u754c\u9762\u8bbe\u8ba1\u5e08\u3002GUI\u8bbe\u8ba1\u5e08\u7684\u65e5\u5e38\u5de5\u4f5c\u5c31\u662f\u754c\u9762\u8bbe\u8ba1\u3001\u56fe\u6807\u8bbe\u8ba1\u3001\u5207\u56fe\u548c\u6807\u6ce8\u3002\u6240\u7528\u5de5\u5177\u4e3aPS\u3001AI\u3001AE\u3001C4D\uff08\u975e\u5fc5\u9700\uff09\u7b49\uff0c \u8fd8\u6709\u5207\u56fe\u548c\u6807\u6ce8\u7684\u4e00\u4e9b\u63d2\u4ef6\u6216\u8f6f\u4ef6\u3002GUI\u8bbe\u8ba1\u5e08\u7684\u5c31\u4e1a\u65b9\u5411\u5206\u4e3a\u4e3b\u9898UI\u8bbe\u8ba1\u5e08\u548cAPP UI\u8bbe\u8ba1\u5e08\u3002 \u6700\u8fd1\u51e0\u5e74\uff0c\u667a\u80fd\u624b\u673a\u8d8a\u6765\u8d8a\u591a\u5143\u5316\uff0c\u5404\u79cd\u54c1\u724c\u5982\u5c0f\u7c73\u3001\u534e\u4e3a\u3001\u4e09\u661f\u3001VIVO\u7b49\u7b49\u624b\u673a\u7c7b\u578b\u4e0d\u4e00\u3001\u578b\u53f7\u4f17\u591a\u3002\u8fd9\u81ea\u7136\u9020\u5c31\u4e86\u5927\u91cf\u7684\u4e3b\u9898\u9700\u6c42\uff0c\u5404\u5927\u624b\u673a\u4e3b\u9898\u5e02\u573a\u90fd\u6709\u4e0a\u4e07\u5957\u4e3b\u9898\uff0c\u800c\u8fd9\u4e9b\u90fd\u662f\u6211\u4eecUI\u8bbe\u8ba1\u53bb\u5b8c\u6210\u7684<\/p><p><\/p><p><strong>\u4e00\u3001\u8bb2\u5e08\u4ecb\u7ecd<\/strong><\/p><p><\/p><p>\u8bb2\u5e08\uff1a\u5362\u6b23<\/p><p>\u5b66\u4e60\u733f\u5730\u8054\u5408\u521b\u59cb\u4eba<\/p><p>\u73b0\u4efb\u67d0\u4f01\u90e8\u603b\u76d1<\/p><p>\u4e2d\u592e\u7f8e\u672f\u5b66\u9662\u827a\u672f\u8bbe\u8ba1\u672c\u7855\u6bd5\u4e1a<\/p><p>\u66fe\u4efb\u7f8e\u56fe\u516c\u53f8UI\u9996\u5e2d\u8bbe\u8ba1\u5e08\uff0c Adobe\u8ba4\u8bc1\u8bbe\u8ba1\u5e08<\/p><p>\u7cbe\u901aPS\/AI\/CDR\/ID\/PDF\/DW\/CAD \/3DSMAX \uff0c\u5728\u5e7f\u544a\u3001\u5370\u5237\u3001APP\u3001\u7f51\u9875\u53caUI\u8bbe\u8ba1\u9886\u57df\u6709\u4e30\u5bcc\u7684\u9879\u76ee\u7ecf\u9a8c\uff0c\u62e5\u670910\u5e74\u89c6\u89c9\u4f20\u8fbe\u8bbe\u8ba1\u7ecf\u9a8c\u3002<\/p><p><\/p><p><strong>\u4e8c\u3001\u4f60\u7684\u6536\u83b7<\/strong><\/p><p><\/p><p>1.\u638c\u63e1ai\u8f6f\u4ef6\u64cd\u4f5c<\/p><p>2.\u638c\u63e1\u8f6f\u4ef6\u65b0\u5efa\u53ca\u4fdd\u5b58<\/p><p>3.\u4f4d\u56fe\u8f6c\u5316\u77e2\u91cf\u56fe<\/p><p>4.\u5b66\u4f1aai\u4e0eps\u7684\u6587\u4ef6\u4e92\u76f8\u8f6c\u6362<\/p><p>5.gif\u56fe\u7247\u5236\u4f5c<\/p><p><\/p><p><strong>\u4e09\u3001\u5b66\u4e60\u57fa\u7840\u8981\u6c42<\/strong><\/p><p><\/p><p>\uf06c0\u57fa\u7840\u5b66\u5458<\/p><p>\uf06c\u5e73\u9762\u8bbe\u8ba1\u60f3\u8981\u8f6cUI\u8bbe\u8ba1\u7684\u5b66\u5458<\/p><p><\/p><p><strong>\u56db\u3001\u8bfe\u7a0b\u5185\u5bb9\u5217\u8868<\/strong><\/p><p><\/p><p>\u8bfe\u7a0b\u6309PS\u65b0\u7248\u6846\u67b6\u6280\u672f\u70b9\u5212\u5206\u4e3a\u56db\u9636\u6bb5\uff1a<\/p><p>\u4e00\uff0eAI_\u57fa\u672c\u5de5\u5177<\/p><p>\u4e8c\uff0eAI_\u88c1\u526a\u8499\u7248<\/p><p>\u4e09\uff0eAI_\u5176\u4ed6\u5de5\u5177<\/p><p>\u56db\uff0eAI_\u6587\u4ef6\u4fdd\u5b58\u4e0e\u4f20\u8f93<\/p><p><\/p><p><\/p>",
            "cover": "Fo-qLnl2YOXkFpcUCwiq9VcKUT-t.png",
            "cover_url": "https:\/\/file.lmonkey.com\/Fo-qLnl2YOXkFpcUCwiq9VcKUT-t.png",
            "preview": "",
            "category_first_level_id": "",
            "subject_first_level_id": "",
            "category_id": 11,
            "subject_id": "",
            "serialize_mode": 2,
            "difficulty": 1,
            "status": "",
            "user_id": "",
            "origin_price": 99900,
            "price": 9900,
            "copy_id": "",
            "expiry_mode": "",
            "expiry_started_at": "",
            "expiry_ended_at": "",
            "expiry_days": "",
            "hit_count": 1061,
            "materials_count": 0,
            "reviews_count": 10,
            "rating": "",
            "notes_count": 0,
            "students_count": 298,
            "income": "",
            "version": "",
            "task_count": 23,
            "video_task_count": 15,
            "video_length": 20206,
            "keywords": [
                "Illustrator",
                "\u8f6f\u4ef6",
                "\u8d85\u6e05",
                "\u57fa\u7840\u6559\u7a0b",
                "\u65b0\u624b\u5165\u95e8",
                "\u7cbe\u901a",
                "\u7cfb\u5217",
                "\u4e00\u5929",
                "\u8f7b\u677e",
                "\u641e\u5b9a"
            ],
            "created_at": "2020-12-30 11:40:46",
            "created_diff": "1\u5e74\u524d",
            "updated_at": "",
            "deleted_at": "",
            "teachers": {
                "data": [
                    {
                        "id": 134,
                        "username": "\u5362\u6b23",
                        "nickname": "",
                        "avatar": "https:\/\/ccidcdn.wkjc.cn\/Fsua23sOfQyNmSCSZJsDMbXCbhPS.jpg"
                    }
                ]
            },
            "tags": {
                "data": [
                    {
                        "id": 43,
                        "user_id": 2,
                        "top_id": 0,
                        "pid": 0,
                        "category_group_id": 2,
                        "level": 1,
                        "path": "",
                        "name": "Illustrator",
                        "nickname": "Illustrator",
                        "flag": "",
                        "image": "",
                        "keywords": "",
                        "description": "",
                        "weigh": 0,
                        "status": 1,
                        "value": ""
                    },
                    {
                        "id": 44,
                        "user_id": 2,
                        "top_id": 0,
                        "pid": 0,
                        "category_group_id": 2,
                        "level": 1,
                        "path": "",
                        "name": "AI",
                        "nickname": "AI",
                        "flag": "",
                        "image": "",
                        "keywords": "",
                        "description": "",
                        "weigh": 0,
                        "status": 1,
                        "value": ""
                    },
                    {
                        "id": 895,
                        "user_id": 1,
                        "top_id": 0,
                        "pid": 0,
                        "category_group_id": 2,
                        "level": 1,
                        "path": "",
                        "name": "ruan-jian-ji-chu",
                        "nickname": "\u8f6f\u4ef6\u57fa\u7840",
                        "flag": "",
                        "image": "",
                        "keywords": "",
                        "description": "",
                        "weigh": 0,
                        "status": 1,
                        "value": ""
                    }
                ]
            },
            "category": {
                "id": 11,
                "user_id": 1,
                "top_id": 0,
                "pid": 0,
                "category_group_id": 1,
                "level": 1,
                "path": "",
                "name": "UI\/UE",
                "nickname": "UI\/UE",
                "flag": "",
                "image": "",
                "keywords": "",
                "description": "",
                "weigh": 70,
                "status": 1,
                "value": ""
            }
        },
        {
            "hash_id": "8mep2bMy",
            "title": "\u7f8e\u672f\u5408\u6210 \u96f6\u7f8e\u672f\u57fa\u7840\u7684\u4f60\u4f1a\u7528ps\u753b\u63d2\u753b\u5417",
            "subtitle": "\u4e86\u89e3\u7f8e\u672f\u900f\u89c6\uff0c\u5149\u5f71\u5173\u7cfb\uff0c\u5546\u4e1a\u7cbe\u4fee_\u4eba\u7269\u7cbe\u4fee",
            "summary": "<p><\/p><p><strong>\u7f8e\u672f\u5408\u6210 \u96f6\u7f8e\u672f\u57fa\u7840\u7684\u4f60\u4f1a\u7528ps\u753b\u63d2\u753b\u5417<\/strong><\/p><p><\/p><p>\u4ece\u8fd0\u8425\u7b56\u5212\u90a3\u62ff\u5230\u4ea4\u4e92\u7a3f\u540e\uff0c\u4ece\u4e0a\u5230\u4e0b\u5b8c\u6574\u7684\u5148\u8fc7\u4e00\u904d\u4ea4\u4e92\u7a3f\uff0c\u4e00\u65b9\u9762\u662f\u770b\u4ea4\u4e92\u7a3f\u7684\u5185\u5bb9\u5b8c\u4e0d\u5b8c\u6574\uff0c\u662f\u4e0d\u662f\u8fd8\u6709\u4e9b\u5185\u5bb9\u70b9\u5fd8\u8bb0\u505a\u4e86\uff0c\u53e6\u4e00\u65b9\u9762\u4e5f\u4f1a\u54a8\u8be2\u4e00\u4e0b\u4ea4\u4e92\u8bbe\u8ba1\u5e08\uff0c \u6709\u54ea\u4e9b\u5730\u65b9\u662f\u9700\u8981\u8bbe\u8ba1\u5e08\u7279\u522b\u6ce8\u610f\u7684\u554a\uff0c\u6709\u6ca1\u6709\u4ec0\u4e48\u5185\u5bb9\u662f\u8981\u4f18\u5148\u505a\u7684\u554a\u7b49\u7b49\u3002\u5173\u952e\u7684\u70b9\u5728\u4e8e\u51c6\u786e\u4e86\u89e3\u8fd0\u8425\u6d3b\u52a8\u7684\u610f\u56fe\uff0f\u5b9a\u4f4d\u3002\u901a\u8fc7\u8fd0\u8425\u6d3b\u52a8\u4f20\u8fbe\u4e00\u79cd\u4ec0\u4e48\u76ee\u7684\uff0f\u6001\u5ea6\uff0c\u8425\u9020\u4e00\u79cd\u4ec0\u4e48\u6c14\u6c1b\uff0c\u597d\u73a9\u7684\uff0c\u6709\u8da3\u7684\uff0c\u6696\u5fc3\u7684\uff0c\u4fc3\u9500\u7684\uff0c\u8fd8\u662f\u9ad8\u7aef\u5927\u6c14\u7684\u3002 \u867d\u7136\u73b0\u5728\u98ce\u683c\u53ef\u4ee5\u6211\u4eec\u81ea\u5df1\u6765\u5b9a\uff0c\u4f46\u51b3\u5b9a\u6743\u8fd8\u662f\u6ca1\u6709\u90a3\u4e48\u5927\uff0c\u5728\u9700\u6c42\u6c9f\u901a\u9636\u6bb5\u8fd8\u662f\u6700\u597d\u8be2\u95ee\u4e00\u4e0b\uff0c\u4ee5\u514d\u8d70\u504f\u3002<\/p><p><\/p><p><strong>\u4e00\u3001\u8bb2\u5e08\u4ecb\u7ecd<\/strong><\/p><p><\/p><p>\u8bb2\u5e08\uff1a\u5362\u6b23<\/p><p>\u5b66\u4e60\u733f\u5730\u8054\u5408\u521b\u59cb\u4eba<\/p><p>\u73b0\u4efb\u67d0\u4f01\u90e8\u603b\u76d1<\/p><p>\u4e2d\u592e\u7f8e\u672f\u5b66\u9662\u827a\u672f\u8bbe\u8ba1\u672c\u7855\u6bd5\u4e1a<\/p><p>\u66fe\u4efb\u7f8e\u56fe\u516c\u53f8UI\u9996\u5e2d\u8bbe\u8ba1\u5e08\uff0c Adobe\u8ba4\u8bc1\u8bbe\u8ba1\u5e08<\/p><p>\u7cbe\u901aPS\/AI\/CDR\/ID\/PDF\/DW\/CAD \/3DSMAX \uff0c\u5728\u5e7f\u544a\u3001\u5370\u5237\u3001APP\u3001\u7f51\u9875\u53caUI\u8bbe\u8ba1\u9886\u57df\u6709\u4e30\u5bcc\u7684\u9879\u76ee\u7ecf\u9a8c\uff0c\u62e5\u670910\u5e74\u89c6\u89c9\u4f20\u8fbe\u8bbe\u8ba1\u7ecf\u9a8c\u3002<\/p><p><\/p><p><strong>\u4e8c\u3001\u4f60\u7684\u6536\u83b7<\/strong><\/p><p><\/p><p>1.\u638c\u63e1\u8bbe\u8ba1\u7406\u8bba\u57fa\u7840<\/p><p>2.\u8ba4\u8bc6\u8272\u5f69\u7684\u4e09\u8981\u7d20<\/p><p>3.\u638c\u63e1\u8272\u5f69\u7684\u7279\u70b9<\/p><p>4.\u81ea\u5df1\u7ed8\u5236\u8272\u76f8\u73af<\/p><p>5.\u5b66\u4f1a\u5546\u4e1a\u7cbe\u4fee<\/p><p><\/p><p><strong>\u4e09\u3001\u5b66\u4e60\u57fa\u7840\u8981\u6c42<\/strong><\/p><p><\/p><p>\uf06c0\u57fa\u7840\u5b66\u5458<\/p><p>\uf06c\u5e73\u9762\u8bbe\u8ba1\u60f3\u8981\u8f6cUI\u8bbe\u8ba1\u7684\u5b66\u5458<\/p><p><\/p><p><strong>\u56db\u3001\u8bfe\u7a0b\u5185\u5bb9\u5217\u8868<\/strong><\/p><p><\/p><p>\u8bfe\u7a0b\u6309PS\u65b0\u7248\u6846\u67b6\u6280\u672f\u70b9\u5212\u5206\u4e3a\u516b\u4e2a\u9636\u6bb5\uff1a<\/p><p>\u4e00\uff0ePS\u7f8e\u672f_\u9020\u578b<\/p><p>\u4e8c\uff0ePS\u7f8e\u672f_\u900f\u89c6<\/p><p>\u4e09\uff0ePS\u7f8e\u672f_\u5149\u5f71<\/p><p>\u56db\uff0ePS\u5408\u6210_\u5149\u5f71<\/p><p>\u4e94\uff0ePS\u5408\u6210_\u900f\u89c6<\/p><p>\u516d\uff0ePS_\u5546\u4e1a\u7cbe\u4fee_\u4eba\u7269\u7cbe\u4fee<\/p><p>\u4e03\uff0ePS_\u5546\u4e1a\u7cbe\u4fee_\u7535\u5668 \u5e03\u6599<\/p><p>\u516b\uff0ePS_\u5546\u4e1a\u7cbe\u4fee_\u9970\u54c1 \u5316\u5986\u54c1<\/p><p><\/p><p><\/p>",
            "cover": "FskdDZvSoiQWBVQm7mb3jiB15QCr.png",
            "cover_url": "https:\/\/file.lmonkey.com\/FskdDZvSoiQWBVQm7mb3jiB15QCr.png",
            "preview": "",
            "category_first_level_id": "",
            "subject_first_level_id": "",
            "category_id": 11,
            "subject_id": "",
            "serialize_mode": 2,
            "difficulty": 1,
            "status": "",
            "user_id": "",
            "origin_price": 88000,
            "price": 8800,
            "copy_id": "",
            "expiry_mode": "",
            "expiry_started_at": "",
            "expiry_ended_at": "",
            "expiry_days": "",
            "hit_count": 985,
            "materials_count": 0,
            "reviews_count": 9,
            "rating": "",
            "notes_count": 0,
            "students_count": 495,
            "income": "",
            "version": "",
            "task_count": 44,
            "video_task_count": 30,
            "video_length": 39395,
            "keywords": [
                "\u7f8e\u672f",
                "\u5408\u6210",
                "\u57fa\u7840",
                "ps",
                "\u63d2\u753b"
            ],
            "created_at": "2020-12-30 11:30:36",
            "created_diff": "1\u5e74\u524d",
            "updated_at": "",
            "deleted_at": "",
            "teachers": {
                "data": [
                    {
                        "id": 134,
                        "username": "\u5362\u6b23",
                        "nickname": "",
                        "avatar": "https:\/\/ccidcdn.wkjc.cn\/Fsua23sOfQyNmSCSZJsDMbXCbhPS.jpg"
                    }
                ]
            },
            "tags": {
                "data": [
                    {
                        "id": 40,
                        "user_id": 2,
                        "top_id": 0,
                        "pid": 0,
                        "category_group_id": 2,
                        "level": 1,
                        "path": "",
                        "name": "PS",
                        "nickname": "PS",
                        "flag": "",
                        "image": "",
                        "keywords": "",
                        "description": "",
                        "weigh": 0,
                        "status": 1,
                        "value": ""
                    },
                    {
                        "id": 894,
                        "user_id": 1,
                        "top_id": 0,
                        "pid": 0,
                        "category_group_id": 2,
                        "level": 1,
                        "path": "",
                        "name": "mei-shu-he-cheng",
                        "nickname": "\u7f8e\u672f\u5408\u6210",
                        "flag": "",
                        "image": "",
                        "keywords": "",
                        "description": "",
                        "weigh": 0,
                        "status": 1,
                        "value": ""
                    }
                ]
            },
            "category": {
                "id": 11,
                "user_id": 1,
                "top_id": 0,
                "pid": 0,
                "category_group_id": 1,
                "level": 1,
                "path": "",
                "name": "UI\/UE",
                "nickname": "UI\/UE",
                "flag": "",
                "image": "",
                "keywords": "",
                "description": "",
                "weigh": 70,
                "status": 1,
                "value": ""
            }
        },
        {
            "hash_id": "Jxbojagw",
            "title": "Photoshop\u8f6f\u4ef6\u57fa\u7840\u4ece\u5165\u95e8\u5230\u7cbe\u901a",
            "subtitle": "\u3010\u65b0\u624b\u5165\u95e8PS\u5fc5\u5907\u6559\u7a0b\u3011\u6700\u6613\u61c2\u7684PS\u5de5\u5177\u57fa\u7840\u6559\u7a0bPhotoshop\u8f6f\u4ef6\u64cd\u4f5c\u6559\u5b66\u89c6\u9891",
            "summary": "<p><\/p><p>                    <strong> Photoshop\u8f6f\u4ef6\u57fa\u7840\u4ece\u5165\u95e8\u5230\u7cbe\u901a<\/strong><\/p><p><\/p><p>\u6211\u4eec\u5e38\u8bf4\u7684\u5b66UI\u8bbe\u8ba1\u6216\u505aUI\u8bbe\u8ba1\uff0c\u4e00\u822c\u90fd\u6307GUI\u754c\u9762\u8bbe\u8ba1\u5e08\u3002GUI\u8bbe\u8ba1\u5e08\u7684\u65e5\u5e38\u5de5\u4f5c\u5c31\u662f\u754c\u9762\u8bbe\u8ba1\u3001\u56fe\u6807\u8bbe\u8ba1\u3001\u5207\u56fe\u548c\u6807\u6ce8\u3002\u6240\u7528\u5de5\u5177\u4e3aPS\u3001AI\u3001AE\u3001C4D\uff08\u975e\u5fc5\u9700\uff09\u7b49\uff0c \u8fd8\u6709\u5207\u56fe\u548c\u6807\u6ce8\u7684\u4e00\u4e9b\u63d2\u4ef6\u6216\u8f6f\u4ef6\u3002GUI\u8bbe\u8ba1\u5e08\u7684\u5c31\u4e1a\u65b9\u5411\u5206\u4e3a\u4e3b\u9898UI\u8bbe\u8ba1\u5e08\u548cAPP UI\u8bbe\u8ba1\u5e08\u3002 \u6700\u8fd1\u51e0\u5e74\uff0c\u667a\u80fd\u624b\u673a\u8d8a\u6765\u8d8a\u591a\u5143\u5316\uff0c\u5404\u79cd\u54c1\u724c\u5982\u5c0f\u7c73\u3001\u534e\u4e3a\u3001\u4e09\u661f\u3001VIVO\u7b49\u7b49\u624b\u673a\u7c7b\u578b\u4e0d\u4e00\u3001\u578b\u53f7\u4f17\u591a\u3002\u8fd9\u81ea\u7136\u9020\u5c31\u4e86\u5927\u91cf\u7684\u4e3b\u9898\u9700\u6c42\uff0c\u5404\u5927\u624b\u673a\u4e3b\u9898\u5e02\u573a\u90fd\u6709\u4e0a\u4e07\u5957\u4e3b\u9898\uff0c\u800c\u8fd9\u4e9b\u90fd\u662f\u6211\u4eecUI\u8bbe\u8ba1\u53bb\u5b8c\u6210\u7684\u3002<\/p><p><\/p><p><strong>\u4e00\u3001\u8bb2\u5e08\u4ecb\u7ecd<\/strong><\/p><p><\/p><p>\u8bb2\u5e08\uff1a\u5362\u6b23<\/p><p>\u5b66\u4e60\u733f\u5730\u8054\u5408\u521b\u59cb\u4eba<\/p><p>\u73b0\u4efb\u67d0\u4f01\u90e8\u603b\u76d1<\/p><p>\u4e2d\u592e\u7f8e\u672f\u5b66\u9662\u827a\u672f\u8bbe\u8ba1\u672c\u7855\u6bd5\u4e1a<\/p><p>\u66fe\u4efb\u7f8e\u56fe\u516c\u53f8UI\u9996\u5e2d\u8bbe\u8ba1\u5e08\uff0c Adobe\u8ba4\u8bc1\u8bbe\u8ba1\u5e08<\/p><p>\u7cbe\u901aPS\/AI\/CDR\/ID\/PDF\/DW\/CAD \/3DSMAX \uff0c\u5728\u5e7f\u544a\u3001\u5370\u5237\u3001APP\u3001\u7f51\u9875\u53caUI\u8bbe\u8ba1\u9886\u57df\u6709\u4e30\u5bcc\u7684\u9879\u76ee\u7ecf\u9a8c\uff0c\u62e5\u670910\u5e74\u89c6\u89c9\u4f20\u8fbe\u8bbe\u8ba1\u7ecf\u9a8c\u3002<\/p><p><\/p><p><strong>\u4e8c\u3001\u4f60\u7684\u6536\u83b7<\/strong><\/p><p><\/p><p>1.\u638c\u63e1\u5236\u4f5c\u9009\u533a\u6d77\u62a5<\/p><p>2.\u8ba4\u8bc6\u6700\u57fa\u7840\u7684\u56fe\u7247\u683c\u5f0f<\/p><p>3.\u638c\u63e1\u8ba4\u8bc6\u56fe\u5c42\u64cd\u4f5c<\/p><p>4.\u638c\u63e1\u8bbe\u8ba1\u57fa\u7840\u8f6f\u4ef6ps\uff0cai\u7684\u57fa\u672c\u64cd\u4f5c<\/p><p>5.\u638c\u63e1\u56fe\u50cf\u8c03\u6574\uff0c\u5bf9\u56fe\u50cf\u8fdb\u884c\u4fee\u56fe<\/p><p>6.\u638c\u63e1\u901a\u9053\u62a0\u56fe<\/p><p><\/p><p><strong>\u4e09\u3001\u5b66\u4e60\u57fa\u7840\u8981\u6c42<\/strong><\/p><p><\/p><p>\uf06c0\u57fa\u7840\u5b66\u5458<\/p><p>\uf06c\u5e73\u9762\u8bbe\u8ba1\u60f3\u8981\u8f6cUI\u8bbe\u8ba1\u7684\u5b66\u5458<\/p><p><\/p><p><strong>\u56db\u3001\u8bfe\u7a0b\u5185\u5bb9\u5217\u8868<\/strong><\/p><p><\/p><p>\u8bfe\u7a0b\u6309PS\u65b0\u7248\u6846\u67b6\u6280\u672f\u70b9\u5212\u5206\u4e3a\u516b\u4e2a\u9636\u6bb5\uff1a<\/p><p><\/p><p>\u4e00\uff0ePS\u884c\u4e1a\u4ecb\u7ecd<\/p><p>\u4e8c\uff0ePS\u56fe\u5c42\u4e0e\u9009\u533a<\/p><p>\u4e09\uff0e\u6587\u672c\u6d77\u62a5\u7684\u5236\u4f5c<\/p><p>\u56db\uff0e\u5e03\u5c14\u8fd0\u7b97<\/p><p>\u4e94\uff0e\u56fe\u50cf\u53d8\u5f62\u64cd\u4f5c<\/p><p>\u516d\uff0e\u56fe\u50cf\u4fee\u590d<\/p><p>\u4e03\uff0e\u56fe\u50cf\u8c03\u6574<\/p><p>\u516b\uff0e\u8499\u7248\u5408\u6210<\/p><p><\/p>",
            "cover": "FkqzMatnPeuSMEdWPRsgaigsWTCT.png",
            "cover_url": "https:\/\/file.lmonkey.com\/FkqzMatnPeuSMEdWPRsgaigsWTCT.png",
            "preview": "",
            "category_first_level_id": "",
            "subject_first_level_id": "",
            "category_id": 11,
            "subject_id": "",
            "serialize_mode": 1,
            "difficulty": 1,
            "status": "",
            "user_id": "",
            "origin_price": 51200,
            "price": 0,
            "copy_id": "",
            "expiry_mode": "",
            "expiry_started_at": "",
            "expiry_ended_at": "",
            "expiry_days": "",
            "hit_count": 1373,
            "materials_count": 0,
            "reviews_count": 10,
            "rating": "",
            "notes_count": 0,
            "students_count": 5227,
            "income": "",
            "version": "",
            "task_count": 57,
            "video_task_count": 41,
            "video_length": 39042,
            "keywords": [
                "Photoshop",
                "\u8f6f\u4ef6",
                "\u57fa\u7840",
                "\u5165\u95e8",
                "\u7cbe\u901a"
            ],
            "created_at": "2020-12-30 11:14:18",
            "created_diff": "1\u5e74\u524d",
            "updated_at": "",
            "deleted_at": "",
            "teachers": {
                "data": [
                    {
                        "id": 134,
                        "username": "\u5362\u6b23",
                        "nickname": "",
                        "avatar": "https:\/\/ccidcdn.wkjc.cn\/Fsua23sOfQyNmSCSZJsDMbXCbhPS.jpg"
                    }
                ]
            },
            "tags": {
                "data": [
                    {
                        "id": 39,
                        "user_id": 2,
                        "top_id": 0,
                        "pid": 0,
                        "category_group_id": 2,
                        "level": 1,
                        "path": "",
                        "name": "Photoshop",
                        "nickname": "Photoshop",
                        "flag": "",
                        "image": "",
                        "keywords": "",
                        "description": "",
                        "weigh": 0,
                        "status": 1,
                        "value": ""
                    },
                    {
                        "id": 40,
                        "user_id": 2,
                        "top_id": 0,
                        "pid": 0,
                        "category_group_id": 2,
                        "level": 1,
                        "path": "",
                        "name": "PS",
                        "nickname": "PS",
                        "flag": "",
                        "image": "",
                        "keywords": "",
                        "description": "",
                        "weigh": 0,
                        "status": 1,
                        "value": ""
                    },
                    {
                        "id": 893,
                        "user_id": 1,
                        "top_id": 0,
                        "pid": 0,
                        "category_group_id": 2,
                        "level": 1,
                        "path": "",
                        "name": "ruan-jian-ji-chu",
                        "nickname": "\u8f6f\u4ef6\u57fa\u7840",
                        "flag": "",
                        "image": "",
                        "keywords": "",
                        "description": "",
                        "weigh": 0,
                        "status": 1,
                        "value": ""
                    }
                ]
            },
            "category": {
                "id": 11,
                "user_id": 1,
                "top_id": 0,
                "pid": 0,
                "category_group_id": 1,
                "level": 1,
                "path": "",
                "name": "UI\/UE",
                "nickname": "UI\/UE",
                "flag": "",
                "image": "",
                "keywords": "",
                "description": "",
                "weigh": 70,
                "status": 1,
                "value": ""
            }
        }
    ],
    "meta": {
        "pagination": {
            "total": 48,
            "count": 3,
            "per_page": 5,
            "current_page": 10,
            "total_pages": 10,
            "links": {
                "previous": "https:\/\/eduapi.lmonkey.com\/api\/courses?page=9",
                "next": null
            }
        }
    }
}